@startuml
User -> API: Credit Qualification API Request

API -> Scraper: Credit qualification

Scraper -> "Banco Truvivienda": Authentication Page Request
Scraper <-- "Banco Truvivienda": Authentication Page Response with Captcha
Scraper -> "Banco Truvivienda": Authentication Data Request
Scraper <-- "Banco Truvivienda": Authentication Response

alt in parallel (with user session)
    Scraper -> "Banco Truvivienda": Transactions Data Request
    Scraper <-- "Banco Truvivienda": Transactions Data Response
end

alt in parallel (with user session)
    Scraper -> "Banco Truvivienda": Social Contributions Data Request
    Scraper <-- "Banco Truvivienda": Social Contributions Data Response
end

Scraper -> Scraper: Credit qualification (Data Aggregation)

API <-- Scraper: Credit qualification Response

User <-- API: Credit Qualification API Response
@enduml
